--------------------------------------------------------------------------------
                         with mention   without mention          TOTAL
--------------------------------------------------------------------------------
with demographics        960                        479           1439
without demographics     3549046                3465597        7014643
TOTAL                    3550006                3466076        7016082
p-value: 3.03873390247e-34
